ID,Discoverer,comets
9,Boonplod W,616
95,Zhou B,363
85,Uchina M,350
89,Xu Z,291
42,Kracht R,243
79,Su H,197
44,Kusiak M,157
63,Oates M,142
33,Hoffman T,114
82,Sun P,107
50,Liwo S,104
53,Matson R,101
45,Leprette X,98
73,Schmalz S,94
66,Prestgard T,77
69,Ruan J,69
96,Zhou X M,62
10,Boschat M,60
7,Biesecker D,53
70,Sachs J,52
32,Hoenig S,42
58,Meyer M,39
5,Berrett P,27
40,Kida K,27
43,Kubczak A,25
83,Tan H,25
77,Shurpakov S,24
71,Scarmato T,23
4,Battams K,20
20,Evans D,20
13,Cernis K,19
21,Farmer S Jr,12
78,Stezelberger S,12
51,Lovejoy T,11
60,Mulye S,11
92,Yuan S,11
97,Zu X,11
34,Hui M T,10
46,Lewis D,10
72,Schenk K,10
3,Banach E,9
8,Biesiada M,9
15,Chen T,9
18,Danaher J,9
55,Maysonet P,9
57,McCarty B,9
81,Sun G,9
19,Deshmukh S,8
24,Godunov A,8
38,Kaluzny M,7
56,Mazzucato M,7
91,Ye Q,7
14,Chen D,6
36,Jin Z,6
6,Bezugly V,5
29,Hammer D,5
74,Shanklin J,5
76,Shkreby P,5
86,Vourlidas A,5
23,Gao X,4
59,Mimeev A,4
62,Nakonechny K,4
64,Otterstedt H,4
68,Reszelewski R,4
88,Watson A,4
12,Cao Z,3
17,Cyr C St,3
28,Gu W,3
39,Kanbi K El,3
47,Liang C,3
11,Cane L,2
22,Gallina G,2
25,Gorelli R,2
26,Gregory S,2
27,Gu S,2
30,Hanson D,2
35,Isaev E,2
49,Liu L,2
65,Pappa G,2
67,Renai S,2
75,Sharma P,2
84,Tsai Y S,2
94,Zheng Q,2
1,Ambrus A,1
2,Ball B,1
16,Collison P,1
31,Harincar T,1
37,Johnson D,1
41,Kotobuki,1
48,Lin C,1
52,Luethen H,1
54,Mattiazzo M,1
61,Nakano A,1
80,Sufa A,1
87,Wang B,1
90,Yang Z,1
93,Zhang J,1
98,Zhu J,1
